^D:\COURSES\SPACEBATTLE_BUG\SPACE BATTLE\DEBUG\EFFECT.OBJ|D:\COURSES\SPACEBATTLE_BUG\SPACE BATTLE\DEBUG\ENEMY.OBJ|D:\COURSES\SPACEBATTLE_BUG\SPACE BATTLE\DEBUG\ENEMYHOLDER.OBJ|D:\COURSES\SPACEBATTLE_BUG\SPACE BATTLE\DEBUG\FIGHTER.OBJ|D:\COURSES\SPACEBATTLE_BUG\SPACE BATTLE\DEBUG\GAME.OBJ|D:\COURSES\SPACEBATTLE_BUG\SPACE BATTLE\DEBUG\GAMEEVENTS.OBJ|D:\COURSES\SPACEBATTLE_BUG\SPACE BATTLE\DEBUG\GAMEOBJECT.OBJ|D:\COURSES\SPACEBATTLE_BUG\SPACE BATTLE\DEBUG\GUI.OBJ|D:\COURSES\SPACEBATTLE_BUG\SPACE BATTLE\DEBUG\IRRLICHT.OBJ|D:\COURSES\SPACEBATTLE_BUG\SPACE BATTLE\DEBUG\MAIN.OBJ|D:\COURSES\SPACEBATTLE_BUG\SPACE BATTLE\DEBUG\ROCKET.OBJ|D:\COURSES\SPACEBATTLE_BUG\SPACE BATTLE\DEBUG\ROCKETHOLDER.OBJ|D:\COURSES\SPACEBATTLE_BUG\SPACE BATTLE\DEBUG\TEXTUREMANAGER.OBJ
C:\PROGRAM FILES (X86)\WINDOWS KITS\8.1\LIB\WINV6.3\UM\X86\KERNEL32.LIB
C:\PROGRAM FILES (X86)\WINDOWS KITS\8.1\LIB\WINV6.3\UM\X86\USER32.LIB
C:\PROGRAM FILES (X86)\WINDOWS KITS\8.1\LIB\WINV6.3\UM\X86\GDI32.LIB
C:\PROGRAM FILES (X86)\WINDOWS KITS\8.1\LIB\WINV6.3\UM\X86\WINSPOOL.LIB
C:\PROGRAM FILES (X86)\WINDOWS KITS\8.1\LIB\WINV6.3\UM\X86\COMDLG32.LIB
C:\PROGRAM FILES (X86)\WINDOWS KITS\8.1\LIB\WINV6.3\UM\X86\ADVAPI32.LIB
C:\PROGRAM FILES (X86)\WINDOWS KITS\8.1\LIB\WINV6.3\UM\X86\SHELL32.LIB
C:\PROGRAM FILES (X86)\WINDOWS KITS\8.1\LIB\WINV6.3\UM\X86\OLE32.LIB
C:\PROGRAM FILES (X86)\WINDOWS KITS\8.1\LIB\WINV6.3\UM\X86\OLEAUT32.LIB
C:\PROGRAM FILES (X86)\WINDOWS KITS\8.1\LIB\WINV6.3\UM\X86\UUID.LIB
C:\PROGRAM FILES (X86)\WINDOWS KITS\8.1\LIB\WINV6.3\UM\X86\ODBC32.LIB
C:\PROGRAM FILES (X86)\WINDOWS KITS\8.1\LIB\WINV6.3\UM\X86\ODBCCP32.LIB
D:\COURSES\SPACEBATTLE_BUG\SPACE BATTLE\DEBUG\EFFECT.OBJ
D:\COURSES\SPACEBATTLE_BUG\SPACE BATTLE\DEBUG\ENEMY.OBJ
D:\COURSES\SPACEBATTLE_BUG\SPACE BATTLE\DEBUG\ENEMYHOLDER.OBJ
D:\COURSES\SPACEBATTLE_BUG\SPACE BATTLE\DEBUG\FIGHTER.OBJ
D:\COURSES\SPACEBATTLE_BUG\SPACE BATTLE\DEBUG\GAME.OBJ
D:\COURSES\SPACEBATTLE_BUG\SPACE BATTLE\DEBUG\GAMEEVENTS.OBJ
D:\COURSES\SPACEBATTLE_BUG\SPACE BATTLE\DEBUG\GAMEOBJECT.OBJ
D:\COURSES\SPACEBATTLE_BUG\SPACE BATTLE\DEBUG\IRRLICHT.OBJ
D:\COURSES\SPACEBATTLE_BUG\SPACE BATTLE\DEBUG\MAIN.OBJ
D:\COURSES\SPACEBATTLE_BUG\SPACE BATTLE\DEBUG\GUI.OBJ
D:\COURSES\SPACEBATTLE_BUG\SPACE BATTLE\DEBUG\ROCKET.OBJ
D:\COURSES\SPACEBATTLE_BUG\SPACE BATTLE\DEBUG\ROCKETHOLDER.OBJ
D:\COURSES\SPACEBATTLE_BUG\SPACE BATTLE\DEBUG\TEXTUREMANAGER.OBJ
C:\WINDOWS\GLOBALIZATION\SORTING\SORTDEFAULT.NLS
C:\PROGRAM FILES (X86)\MICROSOFT VISUAL STUDIO 12.0\VC\LIB\MSVCPRTD.LIB
D:\COURSES\SPACEBATTLE_BUG\SPACE BATTLE\LIBS\IRRLICHT.LIB
C:\PROGRAM FILES (X86)\MICROSOFT VISUAL STUDIO 12.0\VC\LIB\MSVCRTD.LIB
C:\PROGRAM FILES (X86)\MICROSOFT VISUAL STUDIO 12.0\VC\LIB\OLDNAMES.LIB
D:\COURSES\SPACEBATTLE_BUG\SPACE BATTLE\LIBS\IRRKLANG.LIB
C:\PROGRAM FILES (X86)\WINDOWS KITS\8.1\BIN\X86\RC.EXE
C:\PROGRAM FILES (X86)\MICROSOFT VISUAL STUDIO 12.0\VC\BIN\CVTRES.EXE
C:\WINDOWS\SYSTEM32\TZRES.DLL
C:\WINDOWS\SYSTEM32\RSAENH.DLL
^C:\DEN\C++\GAMELOFT\GAMELOFT_SPACE_BATTLE\SPACE BATTLE\DEBUG\EFFECT.OBJ|C:\DEN\C++\GAMELOFT\GAMELOFT_SPACE_BATTLE\SPACE BATTLE\DEBUG\ENEMY.OBJ|C:\DEN\C++\GAMELOFT\GAMELOFT_SPACE_BATTLE\SPACE BATTLE\DEBUG\ENEMYHOLDER.OBJ|C:\DEN\C++\GAMELOFT\GAMELOFT_SPACE_BATTLE\SPACE BATTLE\DEBUG\FIGHTER.OBJ|C:\DEN\C++\GAMELOFT\GAMELOFT_SPACE_BATTLE\SPACE BATTLE\DEBUG\GAME.OBJ|C:\DEN\C++\GAMELOFT\GAMELOFT_SPACE_BATTLE\SPACE BATTLE\DEBUG\GAMEEVENTS.OBJ|C:\DEN\C++\GAMELOFT\GAMELOFT_SPACE_BATTLE\SPACE BATTLE\DEBUG\GAMEOBJECT.OBJ|C:\DEN\C++\GAMELOFT\GAMELOFT_SPACE_BATTLE\SPACE BATTLE\DEBUG\GUI.OBJ|C:\DEN\C++\GAMELOFT\GAMELOFT_SPACE_BATTLE\SPACE BATTLE\DEBUG\IRRLICHT.OBJ|C:\DEN\C++\GAMELOFT\GAMELOFT_SPACE_BATTLE\SPACE BATTLE\DEBUG\MAIN.OBJ|C:\DEN\C++\GAMELOFT\GAMELOFT_SPACE_BATTLE\SPACE BATTLE\DEBUG\ROCKET.OBJ|C:\DEN\C++\GAMELOFT\GAMELOFT_SPACE_BATTLE\SPACE BATTLE\DEBUG\ROCKETHOLDER.OBJ|C:\DEN\C++\GAMELOFT\GAMELOFT_SPACE_BATTLE\SPACE BATTLE\DEBUG\TEXTUREMANAGER.OBJ
C:\PROGRAM FILES (X86)\WINDOWS KITS\8.1\LIB\WINV6.3\UM\X86\KERNEL32.LIB
C:\PROGRAM FILES (X86)\WINDOWS KITS\8.1\LIB\WINV6.3\UM\X86\USER32.LIB
C:\PROGRAM FILES (X86)\WINDOWS KITS\8.1\LIB\WINV6.3\UM\X86\GDI32.LIB
C:\PROGRAM FILES (X86)\WINDOWS KITS\8.1\LIB\WINV6.3\UM\X86\WINSPOOL.LIB
C:\PROGRAM FILES (X86)\WINDOWS KITS\8.1\LIB\WINV6.3\UM\X86\COMDLG32.LIB
C:\PROGRAM FILES (X86)\WINDOWS KITS\8.1\LIB\WINV6.3\UM\X86\ADVAPI32.LIB
C:\PROGRAM FILES (X86)\WINDOWS KITS\8.1\LIB\WINV6.3\UM\X86\SHELL32.LIB
C:\PROGRAM FILES (X86)\WINDOWS KITS\8.1\LIB\WINV6.3\UM\X86\OLE32.LIB
C:\PROGRAM FILES (X86)\WINDOWS KITS\8.1\LIB\WINV6.3\UM\X86\OLEAUT32.LIB
C:\PROGRAM FILES (X86)\WINDOWS KITS\8.1\LIB\WINV6.3\UM\X86\UUID.LIB
C:\PROGRAM FILES (X86)\WINDOWS KITS\8.1\LIB\WINV6.3\UM\X86\ODBC32.LIB
C:\PROGRAM FILES (X86)\WINDOWS KITS\8.1\LIB\WINV6.3\UM\X86\ODBCCP32.LIB
C:\DEN\C++\GAMELOFT\GAMELOFT_SPACE_BATTLE\SPACE BATTLE\DEBUG\EFFECT.OBJ
C:\DEN\C++\GAMELOFT\GAMELOFT_SPACE_BATTLE\SPACE BATTLE\DEBUG\ENEMY.OBJ
C:\DEN\C++\GAMELOFT\GAMELOFT_SPACE_BATTLE\SPACE BATTLE\DEBUG\ENEMYHOLDER.OBJ
C:\DEN\C++\GAMELOFT\GAMELOFT_SPACE_BATTLE\SPACE BATTLE\DEBUG\FIGHTER.OBJ
C:\DEN\C++\GAMELOFT\GAMELOFT_SPACE_BATTLE\SPACE BATTLE\DEBUG\GAME.OBJ
C:\DEN\C++\GAMELOFT\GAMELOFT_SPACE_BATTLE\SPACE BATTLE\DEBUG\GAMEEVENTS.OBJ
C:\DEN\C++\GAMELOFT\GAMELOFT_SPACE_BATTLE\SPACE BATTLE\DEBUG\GAMEOBJECT.OBJ
C:\DEN\C++\GAMELOFT\GAMELOFT_SPACE_BATTLE\SPACE BATTLE\DEBUG\IRRLICHT.OBJ
C:\DEN\C++\GAMELOFT\GAMELOFT_SPACE_BATTLE\SPACE BATTLE\DEBUG\MAIN.OBJ
C:\DEN\C++\GAMELOFT\GAMELOFT_SPACE_BATTLE\SPACE BATTLE\DEBUG\GUI.OBJ
C:\DEN\C++\GAMELOFT\GAMELOFT_SPACE_BATTLE\SPACE BATTLE\DEBUG\ROCKET.OBJ
C:\DEN\C++\GAMELOFT\GAMELOFT_SPACE_BATTLE\SPACE BATTLE\DEBUG\ROCKETHOLDER.OBJ
C:\DEN\C++\GAMELOFT\GAMELOFT_SPACE_BATTLE\SPACE BATTLE\DEBUG\TEXTUREMANAGER.OBJ
C:\WINDOWS\SYSTEM32\TZRES.DLL
C:\WINDOWS\GLOBALIZATION\SORTING\SORTDEFAULT.NLS
C:\PROGRAM FILES (X86)\MICROSOFT VISUAL STUDIO 12.0\VC\LIB\MSVCPRTD.LIB
C:\DEN\C++\GAMELOFT\GAMELOFT_SPACE_BATTLE\SPACE BATTLE\LIBS\IRRLICHT.LIB
C:\PROGRAM FILES (X86)\MICROSOFT VISUAL STUDIO 12.0\VC\LIB\MSVCRTD.LIB
C:\PROGRAM FILES (X86)\MICROSOFT VISUAL STUDIO 12.0\VC\LIB\OLDNAMES.LIB
C:\DEN\C++\GAMELOFT\GAMELOFT_SPACE_BATTLE\SPACE BATTLE\LIBS\IRRKLANG.LIB
C:\PROGRAM FILES (X86)\WINDOWS KITS\8.1\BIN\X86\RC.EXE
C:\PROGRAM FILES (X86)\MICROSOFT VISUAL STUDIO 12.0\VC\BIN\CVTRES.EXE
C:\WINDOWS\SYSTEM32\RSAENH.DLL
